…
##### Calculate proportion of unsolved homicides in Baltimore, MD

``` r
washington_post |> 
  filter(city_state == "Baltimore, MD")
```

    ## # A tibble: 2,827 × 14
    ##    uid        reported_date victim_last victim_first  victim_race victim_age
    ##    <chr>              <dbl> <chr>       <chr>         <chr>       <chr>     
    ##  1 Bal-001607      20070101 NELSON      LEON          Black       17        
    ##  2 Bal-001608      20070102 GOLF        EDDIE         Black       26        
    ##  3 Bal-001609      20070105 MACKENNEY   THOMAS JOSEPH Black       21        
    ##  4 Bal-001610      20070105 CANUPP      EDWARD LEE    White       61        
    ##  5 Bal-001611      20070106 CUNNINGHAN  MICHAEL       Black       46        
    ##  6 Bal-001612      20070106 ALSTON      RAY WILLIAM   Black       27        
    ##  7 Bal-001613      20070107 HENDERSON   YULE ANTONIO  Black       21        
    ##  8 Bal-001614      20070108 MCDOWELL    MARCU         Black       16        
    ##  9 Bal-001615      20070108 GARDNER     RODNEY THOMAS Black       21        
    ## 10 Bal-001616      20070108 BURNETTE    NELSENE       Black       44        
    ## # ℹ 2,817 more rows
    ## # ℹ 8 more variables: victim_sex <chr>, city <chr>, state <chr>, lat <dbl>,
    ## #   lon <dbl>, disposition <chr>, city_state <chr>, unsolved <lgl>
…
